{
	"name": "flixel-ui",
	"url" : "https://github.com/HaxeFlixel/flixel-ui",
	"license": "MIT",
	"tags": ["game", "openfl", "flash", "neko", "cpp", "android", "ios", "cross"],
	"description": "A UI library for Flixel",
	"version": "2.3.0",
	"releasenote": "Compatibility with flixel 4.4.0.",
	"contributors": ["haxeflixel", "larsiusprime", "Gama11"]
}
